[gd_scene load_steps=7 format=2]

[ext_resource path="res://Util/LandingDustEffect.gd" type="Script" id=1]
[ext_resource path="res://Assets/Player/jump_landing_dust.png" type="Texture" id=2]

[sub_resource type="AtlasTexture" id=1]
atlas = ExtResource( 2 )
region = Rect2( 0, 0, 16, 16 )

[sub_resource type="AtlasTexture" id=2]
atlas = ExtResource( 2 )
region = Rect2( 16, 0, 16, 16 )

[sub_resource type="AtlasTexture" id=3]
atlas = ExtResource( 2 )
region = Rect2( 32, 0, 16, 16 )

[sub_resource type="SpriteFrames" id=4]
animations = [ {
"frames": [ SubResource( 1 ), SubResource( 2 ), SubResource( 3 ) ],
"loop": true,
"name": "default",
"speed": 5.0
} ]

[node name="LandingDustEffect" type="AnimatedSprite"]
frames = SubResource( 4 )
centered = false
script = ExtResource( 1 )

[connection signal="animation_finished" from="." to="." method="_on_LandingDustEffect_animation_finished"]
