[gd_scene load_steps=5 format=2]

[ext_resource path="res://Assets/UI/Title.png" type="Texture" id=1]

[sub_resource type="AtlasTexture" id=1]
flags = 4
atlas = ExtResource( 1 )
region = Rect2( 0, 0, 240, 160 )

[sub_resource type="AtlasTexture" id=2]
flags = 4
atlas = ExtResource( 1 )
region = Rect2( 240, 0, 240, 160 )

[sub_resource type="SpriteFrames" id=3]
animations = [ {
"frames": [ SubResource( 1 ), SubResource( 2 ) ],
"loop": true,
"name": "default",
"speed": 5.0
} ]

[node name="Title" type="Node2D"]

[node name="AnimatedSprite" type="AnimatedSprite" parent="."]
frames = SubResource( 3 )
speed_scale = 0.3
playing = true
